{
  "name": "@fabernovel/heart-api",
  "entries": [
    {
      "version": "3.1.1",
      "tag": "@fabernovel/heart-api_v3.1.1",
      "date": "Wed, 27 Jul 2022 13:43:15 GMT",
      "comments": {
        "patch": [
          {
            "comment": "Increase the minimum Node.js version to the latest LTS (14.17.0)"
          }
        ],
        "dependency": [
          {
            "comment": "Updating dependency \"@fabernovel/heart-core\" from `^3.1.1` to `^3.1.2`"
          },
          {
            "comment": "Updating dependency \"@fabernovel/heart-cli\" from `^3.1.1` to `^3.2.0`"
          }
        ]
      }
    },
    {
      "version": "3.1.0",
      "tag": "@fabernovel/heart-api_v3.1.0",
      "date": "Thu, 16 Jan 2020 14:51:38 GMT",
      "comments": {
        "minor": [
          {
            "comment": "Initial release of automated tests"
          }
        ],
        "patch": [
          {
            "comment": "Update the link to the purpose of Heart in the README, to redirect to the fabernovel.com website instead of the wiki"
          }
        ],
        "dependency": [
          {
            "comment": "Updating dependency \"@fabernovel/heart-core\" from `^3.0.1` to `^3.1.0`"
          },
          {
            "comment": "Updating dependency \"@fabernovel/heart-cli\" from `^3.0.0` to `^3.1.0`"
          }
        ]
      }
    },
    {
      "version": "3.0.1",
      "tag": "@fabernovel/heart-api_v3.0.1",
      "date": "Fri, 19 Jul 2019 09:43:15 GMT",
      "comments": {
        "patch": [
          {
            "comment": "Fix an issue where the binary was not packaged when published to NPM"
          }
        ]
      }
    },
    {
      "version": "3.0.0",
      "tag": "@fabernovel/heart-api_v3.0.0",
      "date": "Fri, 19 Jul 2019 08:17:11 GMT",
      "comments": {
        "patch": [
          {
            "comment": "Remove the contributing guide and the license: they are now available in the Heart repository"
          },
          {
            "comment": "Remove unnecessary dependencies and scripts from package.json"
          },
          {
            "comment": "Update the readme to reflect the changes introduced by this major release"
          }
        ],
        "minor": [
          {
            "comment": "Improve the module installation: it can now be installed as a devDependency"
          }
        ],
        "major": [
          {
            "comment": "Add Heart CLI as a peer dependency: it must be installed to make this module usable"
          },
          {
            "comment": "Upgrade the minimum required version of Node.js to the active LTS: from >=8.0.0 to >=10.13.0"
          },
          {
            "comment": "Improve compatibility: starting from this version, every Heart module shares the same major version number"
          }
        ]
      }
    }
  ]
}
