{
  "changes": [
    {
      "packageName": "@fabernovel/heart-greenit",
      "comment": "Updated the homepage field to redirect to the heart website and not to the gitlab repository. Changed the link \"Read more about\" of the README to redirect to the README of the repository. The old link redirected to an article that do not exist anymore.",
      "type": "none"
    }
  ],
  "packageName": "@fabernovel/heart-greenit"
}