{
  "changes": [
    {
      "packageName": "@fabernovel/heart-api",
      "comment": "Make the module compatible with the threshold feature introduced with @fabernovel/heart-cli 3.2.0",
      "type": "minor"
    }
  ],
  "packageName": "@fabernovel/heart-api"
}
