{
  "changes": [
    {
      "packageName": "@fabernovel/heart-api",
      "comment": "Updating dependency \\\"@fabernovel/heart-core\\\" from `^3.1.1` to `^3.2.0`",
      "type": "none"
    }
  ],
  "packageName": "@fabernovel/heart-api"
}